<?xml version="1.0" encoding="UTF-8" standalone="no"?>
<!-- Created with Inkscape (http://www.inkscape.org/) -->

<svg
   xmlns:dc="http://purl.org/dc/elements/1.1/"
   xmlns:cc="http://creativecommons.org/ns#"
   xmlns:rdf="http://www.w3.org/1999/02/22-rdf-syntax-ns#"
   xmlns:svg="http://www.w3.org/2000/svg"
   xmlns="http://www.w3.org/2000/svg"
   xmlns:sodipodi="http://sodipodi.sourceforge.net/DTD/sodipodi-0.dtd"
   xmlns:inkscape="http://www.inkscape.org/namespaces/inkscape"
   width="70.722649mm"
   height="61.807518mm"
   viewBox="0 0 70.722649 61.807518"
   version="1.1"
   id="svg8"
   inkscape:version="0.92.5 (2060ec1f9f, 2020-04-08)"
   sodipodi:docname="chateen_inv.svg">
  <defs
     id="defs2" />
  <sodipodi:namedview
     id="base"
     pagecolor="#ffffff"
     bordercolor="#666666"
     borderopacity="1.0"
     inkscape:pageopacity="0.0"
     inkscape:pageshadow="2"
     inkscape:zoom="1.979899"
     inkscape:cx="-2.0438562"
     inkscape:cy="109.6847"
     inkscape:document-units="mm"
     inkscape:current-layer="layer1"
     showgrid="false"
     inkscape:pagecheckerboard="true"
     inkscape:window-width="1920"
     inkscape:window-height="1176"
     inkscape:window-x="0"
     inkscape:window-y="0"
     inkscape:window-maximized="1"
     fit-margin-top="0"
     fit-margin-left="0"
     fit-margin-right="0"
     fit-margin-bottom="0" />
  <metadata
     id="metadata5">
    <rdf:RDF>
      <cc:Work
         rdf:about="">
        <dc:format>image/svg+xml</dc:format>
        <dc:type
           rdf:resource="http://purl.org/dc/dcmitype/StillImage" />
        <dc:title />
      </cc:Work>
    </rdf:RDF>
  </metadata>
  <g
     inkscape:label="Vrstva 1"
     inkscape:groupmode="layer"
     id="layer1"
     transform="translate(-168.84654,-21.935435)">
    <text
       xml:space="preserve"
       style="font-style:normal;font-weight:normal;font-size:10.58333302px;line-height:1.25;font-family:sans-serif;letter-spacing:0px;word-spacing:0px;fill:#ffffff;fill-opacity:1;stroke:none;stroke-width:0.26458332;"
       x="269.62216"
       y="194.80943"
       id="text8928"><tspan
         sodipodi:role="line"
         id="tspan8926"
         x="269.62216"
         y="204.1732"
         style="font-style:normal;font-variant:normal;font-weight:bold;font-stretch:normal;font-size:25.39999962px;line-height:3.25;font-family:sans-serif;-inkscape-font-specification:'sans-serif Bold';stroke-width:0.26458332;fill:#ffffff;" /></text>
    <path
       style="opacity:1;fill:none;fill-opacity:1;stroke:#ffffff;stroke-width:1.5;stroke-miterlimit:4;stroke-dasharray:none;stroke-opacity:1"
       d="m 193.65089,22.685435 a 12.294398,12.160764 0 0 0 -10.91613,6.589777 12.294398,12.160764 0 0 0 -0.84388,-0.04186 12.294398,12.160764 0 0 0 -12.29434,12.161014 12.294398,12.160764 0 0 0 2.75539,7.662582 12.294398,12.160764 0 0 0 -2.08721,6.77013 12.294398,12.160764 0 0 0 10.7859,12.058178 l -9.85056,15.20321 20.10937,-11.253578 a 12.294398,12.160764 0 0 0 6.35051,1.765268 12.294398,12.160764 0 0 0 9.45473,-4.39353 12.294398,12.160764 0 0 0 7.65069,2.656168 12.294398,12.160764 0 0 0 12.26799,-11.644249 12.294398,12.160764 0 0 0 11.78584,-12.142412 12.294398,12.160764 0 0 0 -6.55877,-10.747666 12.294398,12.160764 0 0 0 0.0108,-0.210322 12.294398,12.160764 0 0 0 -12.29434,-12.161015 12.294398,12.160764 0 0 0 -5.67718,1.379762 12.294398,12.160764 0 0 0 -7.01817,-2.181262 12.294398,12.160764 0 0 0 -5.70405,1.395262 12.294398,12.160764 0 0 0 -7.92664,-2.865457 z"
       id="path8455"
       inkscape:connector-curvature="0" />
    <text
       xml:space="preserve"
       style="font-style:normal;font-weight:normal;font-size:10.58333302px;line-height:1.25;font-family:sans-serif;letter-spacing:0px;word-spacing:0px;fill:#ffffff;fill-opacity:1;stroke:none;stroke-width:0.26458332;"
       x="185.94997"
       y="56.623154"
       id="text9014"><tspan
         sodipodi:role="line"
         id="tspan9012"
         x="185.94997"
         y="56.623154"
         style="font-size:25.39999962px;stroke-width:0.26458332;fill:#ffffff;">xD</tspan></text>
  </g>
</svg>
